{
	"__comment": "Created by SLembas for Default 32x32 - http://slembas.su/default-32x32/",
	"parent": "block/cube_bottom_top",
	"textures": {
		"bottom": "block/piston_bottom",
		"side": "block/piston_side_sticky",
		"top": "block/piston_top_sticky"
	}
}
